[
    {
      "userId": 1,
      "id": 1,
      "title": "Foam Rolling 5 Minutes",
      "completed": false,
      "type": "Crossfit 1",
      "workoutVideo": "https://www.youtube.com/watch?v=c1c-cHDIBJE"
    },
    {
      "userId": 1,
      "id": 2,
      "title": "Active Warm Up 10 Minutes",
      "completed": false,
      "type": "Crossfit 1",
      "workoutVideo": "https://www.youtube.com/watch?v=Ks-lKvKQ8f4"
    },
    {
      "userId": 1,
      "id": 3,
      "title": "12 toes to bars",
      "completed": false,
      "type": "Crossfit 1",
      "workoutVideo": "https://www.youtube.com/watch?v=_03pCKOv4l4"
    },
    {
      "userId": 1,
      "id": 4,
      "title": "10 burpees over bar",
      "completed": true,
      "type": "Crossfit 1",
      "workoutVideo": "https://www.youtube.com/watch?v=H6N_xZpDXJM"
    },
    {
      "userId": 1,
      "id": 5,
      "title": "8 thrusters 95/65lbs",
      "completed": false,
      "type": "Crossfit 1",
      "workoutVideo": "https://www.youtube.com/watch?v=aea5BGj9a8Y"
    },
    {
        "userId": 1,
        "id": 6,
        "title": "30 double unders",
        "completed": false,
        "type": "Crossfit 1",
        "workoutVideo": "https://www.youtube.com/watch?v=-tF3hUsPZAI"
    },
    {
        "userId": 1,
        "id": 7,
        "title": "20 alternating DB snatches 50/35lbs",
        "completed": false,
        "type": "Crossfit 1",
        "workoutVideo": "https://www.youtube.com/watch?v=6Z6aU3GTHZk"
    },
    {
        "userId": 1,
        "id": 8,
        "title": "10 cal row",
        "completed": false,
        "type": "Crossfit 1",
        "workoutVideo": "https://www.youtube.com/watch?v=mPzgEzU1RTk"
    }
  ]